…
#> 
#> $service_abstract
#> [1] "WCS end-point for individual habitat maps and models held by EMODnet Seabed Habitats.\r\n\r\nIncludes all data with access limitations of \"View and Download\" (excluding \"View only\" data)"
#> 
#> $service_access_constraits
#> [1] "None"
#> 
#> $service_fees
#> [1] "None"
#> 
#> $service_type
#> [1] "urn:ogc:service:wcs"
#> 
#> $coverage_details
#> # A tibble: 75 × 9
#>    coverage_id           dim_n dim_names extent crs   wgs84_bbox temporal_extent
#>    <chr>                 <int> <chr>     <chr>  <chr> <chr>      <chr>          
#>  1 emodnet_open_maplibr…     2 lat(deg)… -56.5… EPSG… -56.51, 2… NA             
#>  2 emodnet_open_maplibr…     2 x(m):geo… 28763… EPSG… -16.25, 4… NA             
#>  3 emodnet_open_maplibr…     2 x(m):geo… 30398… EPSG… -12.97, 4… NA             
#>  4 emodnet_open_maplibr…     2 x(m):geo… 17828… EPSG… -39.03, 4… NA             
#>  5 emodnet_open_maplibr…     2 lat(deg)… -66, … EPSG… -66, -62.… NA             
#>  6 emodnet_open_maplibr…     2 lat(deg)… -66, … EPSG… -66, -62.… NA             
#>  7 emodnet_open_maplibr…     2 lat(deg)… -66, … EPSG… -66, -62.… NA             
#>  8 emodnet_open_maplibr…     2 lat(deg)… -75, … EPSG… -75, 54.3… NA             
#>  9 emodnet_open_maplibr…     2 lat(deg)… -75, … EPSG… -75, 54.3… NA             
#> 10 emodnet_open_maplibr…     2 x(m):geo… -7299… EPSG… -6.56, 29… NA             
#> # ℹ 65 more rows
#> # ℹ 2 more variables: vertical_extent <chr>, subtype <chr>
…
